

powered by:
     __                     
    |__|___________ _______ 
    |  \_  __ \__  \\_  __ \
    |  ||  | \// __ \|  | \/
/\__|  ||__|  (____  /__|   
\______|           \/      
			http://www.jrar.me
			
			
